ingroup_misperception_calculations
…
Catherine Garton

2022-11-02

Lees & Cikara, 2020, Experiment 4

Links: * Data Availability: OSF

View results:

#### ==== Calculating effect size for various ingroup misperceptions ==== 

select(test, Party, Scenario, category, d) #view  all results

## # A tibble: 30 x 4
## # Groups:   Party, Scenario [10]
##    Party      Scenario   category     d
##    <chr>      <fct>      <chr>    <dbl>
##  1 Democrat   Scenario 1 dislike  0.107
##  2 Democrat   Scenario 2 dislike  0.490
##  3 Democrat   Scenario 3 dislike  0.433
##  4 Democrat   Scenario 4 dislike  0.374
##  5 Democrat   Scenario 5 dislike  0.312
##  6 Republican Scenario 1 dislike  0.278
##  7 Republican Scenario 2 dislike  0.426
##  8 Republican Scenario 3 dislike  0.182
##  9 Republican Scenario 4 dislike  0.540
## 10 Republican Scenario 5 dislike  0.297
## #  with 20 more rows
…
